<svg width="1512" height="1367" viewBox="0 0 1512 1367" fill="none" xmlns="http://www.w3.org/2000/svg">
<path fill-rule="evenodd" clip-rule="evenodd" d="M932.144 81.9185C1330.16 78.1796 1853.36 -135.248 2052.2 142.149C2252.62 421.749 1843.08 794.597 1641.71 1073.75C1539.07 1216.04 1391.33 1297.45 1199.66 1354.8C1028.56 1405.99 864.463 1281.43 685.623 1251.97C351.284 1196.88 -81.7466 1347.22 -261.79 1113.99C-474.098 838.962 -457.435 384.563 -186.456 145.209C74.7523 -85.5138 544.245 85.5623 932.144 81.9185Z" fill="#F3FAFF"/>
</svg>
