<svg width="2282" height="877" viewBox="0 0 2282 877" fill="none" xmlns="http://www.w3.org/2000/svg">
<path fill-rule="evenodd" clip-rule="evenodd" d="M1286.68 57.8731C1680.16 55.2413 1995.52 -95.3114 2192.09 99.9529C2390.23 296.767 2227.17 527.783 2028.09 724.285C1926.62 824.443 1846.12 819.407 1656.63 859.771C1487.48 895.805 1265.51 867.336 1088.7 846.593C758.175 807.815 334.46 941.682 156.468 777.505C-53.4199 583.908 -65.5786 264.475 202.312 95.9897C460.543 -66.4199 903.202 60.4381 1286.68 57.8731Z" fill="#F3FAFF"/>
</svg>
