<svg width="1512" height="130" viewBox="0 0 1512 130" fill="none" xmlns="http://www.w3.org/2000/svg">
<path d="M1 127C61.5456 114 226.586 116.8 368.728 54C546.405 -24.5 777.534 46 865.631 54C953.727 62 1075.48 92.9879 1279.39 43.4879C1442.51 3.88792 1502.43 0.654595 1512 3.98793" stroke="#D7EEFF" stroke-width="5"/>
</svg>
