﻿№;category_id;parent_id;seo_keyword;name(UK-uk);meta_title(UK-uk);meta_description(UK-uk);name(ru-ru);meta_title(ru-ru);meta_description(ru-ru)
-;495;0;tkani;Тканини;Італійська тканина. Придбати тканини | Mytessuti;Інтернет магазин тканин Mytessuti пропонує великий вибір італійських тканин. Тканини від найкращих дизайнерів Італії. Тканини від брендів;Ткани;Итальянские ткани. Купить ткани | Mytessuti;Интернет магазин тканей Mytessuti предоставляет большой выбор итальянских тканей. Ткани от лучших дизайнеров Италии. Ткани от брендов
-;80;0;brand;Бренди;Бренди тканин - італійські тканини Mytessuti;Бренди в інтернет магазині тканин Mytessuti. Магазин пропонує великий вибір італійських тканин. Тканини від найкращих дизайнерів Італії. Тканини від брендів;Бренды;Бренды тканей - итальянские ткани | Mytessuti;Итальянские бренды в интернет магазине тканей Mytessuti. Магазин предоставляет большой выбор итальянских тканей. Ткани от лучших дизайнеров Италии. Ткани от брендов
-;496;495;alpaka;Альпака;Тканина Альпака ціна на тканину альпака | Mytessuti;Купити тканину ангора в інтернет магазині італійських тканин Mytessuti. У нашому магазині ви знайдете все для пошиття оригінальних та ексклюзивних нарядів, а також зможете замовити доставку тканин у будь-яку продукцію.;Альпака;Ткань Альпака | цена ткань альпака | Mytessuti;Купить ткань альпака в интернет магазине итальянских тканей Mytessuti. В нашем магазине вы найдете все для пошива оригинальных и эксклюзивных нарядов, а также сможете заказать доставку тканей в любую
-;497;495;angora;Ангора;Тканина Ангора | Ціна тканина ангора | Mytessuti;Купити тканина ангора в інтернет магазині італійських тканин Mytessuti. У нашому магазині ви знайдете все для пошиття оригінальних та ексклюзивних нарядів, а також зможете замовити доставку тканин у будь-яку продукцію.;Ангора;Ткань Ангора | цена ткань ангора | Mytessuti;Купить ткань ангора в интернет магазине итальянских тканей Mytessuti. В нашем магазине вы найдете все для пошива оригинальных и эксклюзивных нарядов, а также сможете заказать доставку тканей в любую
-;498;495;atlas;Атлас;Тканина Атлас | Ціна тканина атлас | Mytessuti;Купити тканину атлас в інтернет магазині італійських тканин Mytessuti. У нашому магазині ви знайдете все для пошиття оригінальних та ексклюзивних нарядів;Атлас;Ткань Атлас | цена ткань атлас | Mytessuti;Купить ткань атлас в интернет магазине итальянских тканей Mytessuti. В нашем магазине вы найдете все для пошива оригинальных и эксклюзивных нарядов, а также сможете заказать доставку тканей в любую
-;499;495;barhat;Оксамит;Тканина Оксамит | Ціна тканина оксамит | Mytessuti;Купити тканину оксамит в інтернет магазині італійських тканин Mytessuti. У нашому магазині ви знайдете все для пошиття оригінальних та ексклюзивних нарядів;Бархат;Ткань Бархат | цена ткань бархат | Mytessuti;Купить ткань бархат в интернет магазине итальянских тканей Mytessuti. В нашем магазине вы найдете все для пошива оригинальных и эксклюзивных нарядов, а также сможете заказать доставку тканей в любую
-;500;495;batist;Батист;Тканина Батіст | Ціна тканина батіст | Mytessuti;Купити тканину батист в інтернет магазині італійських тканин Mytessuti. У нашому магазині ви знайдете все для пошиття оригінальних та ексклюзивних нарядів;Батист;Ткань Батист | цена ткань батист | Mytessuti;Купить ткань батист в интернет магазине итальянских тканей Mytessuti. В нашем магазине вы найдете все для пошива оригинальных и эксклюзивных нарядов, а также сможете заказать доставку тканей в любую
-;501;495;bifleks;Біфлекс;Тканина Біфлекс | Ціна біфлекс | Mytessuti;Купити тканину біфлекс в інтернет магазині італійських тканин Mytessuti. У нашому магазині ви знайдете все для пошиття оригінальних та ексклюзивних нарядів;Бифлекс;Ткань Бифлекс | цена бифлекс | Mytessuti;Купить ткань бифлекс в интернет магазине итальянских тканей Mytessuti. В нашем магазине вы найдете все для пошива оригинальных и эксклюзивных нарядов, а также сможете заказать доставку тканей в любую
-;502;80;anna-rachele;Anna Rachele;Уживані тканина Anna Rachele | Mytessuti;Купити тканина Anna Rachele в інтернет магазині італійських тканин Mytessuti.;Anna Rachele;Купить ткань Anna Rachele | Mytessuti;Купить ткань Anna Rachele в интернет магазине итальянских тканей Mytessuti
-;503;80;armani;Armani;Тканина Armani | Ціна на тканину armani | Mytessuti;Купити тканину Armani в інтернет магазині італійських тканин Mytessuti. У нашому магазині ви знайдете все для пошиття оригінальних та ексклюзивних нарядів;Armani;Ткань Armani | цена ткань armani | Mytessuti;Купить ткань Armani в интернет магазине итальянских тканей Mytessuti. В нашем магазине вы найдете все для пошива оригинальных и эксклюзивных нарядов, а также сможете заказать доставку тканей в любую т
-;504;80;blugirl;Blugirl;Тканина Blugirl | Ціна на тканину blugirl | Mytessuti;Купити тканину Blugirl в інтернет магазині італійських тканин Mytessuti. У нашому магазині ви знайдете все для пошиття оригінальних та ексклюзивних нарядів;Blugirl;Ткань Blugirl | цена ткань blugirl | Mytessuti;Купить ткань Blugirl в интернет магазине итальянских тканей Mytessuti. В нашем магазине вы найдете все для пошива оригинальных и эксклюзивных нарядов, а также сможете заказать доставку тканей в любую
-;505;80;blumarine;Blumarine;Уживані тканини Blumarine | Mytessuti;Купити тканину Blumarine в інтернет магазині італійських тканин Mytessuti. У нашому магазині ви знайдете все для пошиття оригінальних та ексклюзивних нарядів;Blumarine;Купить ткань Blumarine | Mytessuti;Купить ткань Blumarine в интернет магазине итальянских тканей Mytessuti. В нашем магазине вы найдете все для пошива оригинальных и эксклюзивных нарядов.
-;506;80;burberry;Burberry;Тканина Burberry | Ціна burberry | Mytessuti;Купити тканину Burberry в інтернет магазині італійських тканин Mytessuti. У нашому магазині ви знайдете все для пошиття оригінальних та ексклюзивних нарядів;Burberry;Ткань Burberry | цена burberry | Mytessuti;Купить ткань Burberry в интернет магазине итальянских тканей Mytessuti. В нашем магазине вы найдете все для пошива оригинальных и эксклюзивных нарядов, а также сможете заказать доставку тканей в любую
-;507;80;celine;Celine;Тканина Celine | Ціна celine тканини | Mytessuti;Купити тканину Celine в інтернет магазині італійських тканин Mytessuti. У нашому магазині ви знайдете все для пошиття оригінальних та ексклюзивних нарядів;Celine;Ткань Celine | цена ткань celine | Mytessuti;Купить ткань Celine в интернет магазине итальянских тканей Mytessuti. В нашем магазине вы найдете все для пошива оригинальных и эксклюзивных нарядов, а также сможете заказать доставку тканей в любую т
-;508;80;chanel;Chanel;Тканина Chanel | Ціна chanel тканини | Mytessuti;Купити тканину Chanel в інтернет магазині італійських тканин Mytessuti. У нашому магазині ви знайдете все для пошиття оригінальних та ексклюзивних нарядів;Chanel;Ткань Chanel | цена ткань chanel | Mytessuti;Купить ткань Chanel в интернет магазине итальянских тканей Mytessuti. В нашем магазине вы найдете все для пошива оригинальных и эксклюзивных нарядов, а также сможете заказать доставку тканей в любую т
-;509;80;dior;Dior;Тканина Dior | Ціна тканина dior | Mytessuti;Купити тканину Dior в інтернет магазині італійських тканин Mytessuti. У нашому магазині ви знайдете все для пошиття оригінальних та ексклюзивних нарядів;Dior;Ткань Dior | цена ткань dior | Mytessuti;Купить ткань Dior в интернет магазине итальянских тканей Mytessuti. В нашем магазине вы найдете все для пошива оригинальных и эксклюзивных нарядов, а также сможете заказать доставку тканей в любую точ
-;510;80;dolce-gabbana;Dolce&Gabbana;Уживані тканина Dolce Gabbana | Mytessuti;Купити тканина Dolce&Gabbana в інтернет магазині італійських тканин Mytessuti. У нашому магазині ви знайдете все для пошиття оригінальних та ексклюзивних нарядів;Dolce&Gabbana;Купить ткань Dolce Gabbana | Mytessuti;Купить ткань Dolce&Gabbana в интернет магазине итальянских тканей Mytessuti. В нашем магазине вы найдете все для пошива оригинальных и эксклюзивных нарядов.
-;511;80;emanuel-ungaro;Emanuel Ungaro;Уживані тканина Emanuel Ungaro | Mytessuti;Купити тканина Emanuel Ungaro в інтернет магазині італійських тканин Mytessuti. У нашому магазині ви знайдете все для пошиття оригінальних та ексклюзивних нарядів;Emanuel Ungaro;Купить ткань Emanuel Ungaro | Mytessuti;Купить ткань Emanuel Ungaro в интернет магазине итальянских тканей Mytessuti. В нашем магазине вы найдете все для пошива оригинальных и эксклюзивных нарядов.
-;512;80;emilio-pucci;Emilio Pucci;Уживані тканина Emilio Pucci | Mytessuti;Купити тканину Emilio Pucci в інтернет магазині італійських тканин Mytessuti. У нашому магазині ви знайдете все для пошиття оригінальних та ексклюзивних нарядів;Emilio Pucci;Купить ткань Emilio Pucci | Mytessuti;Купить ткань Emilio Pucci в интернет магазине итальянских тканей Mytessuti. В нашем магазине вы найдете все для пошива оригинальных и эксклюзивных нарядов.
-;513;80;escada;Escada;Тканина Escada | Ціна на тканину escada | Mytessuti;Купити тканину Escada в інтернет магазині італійських тканин Mytessuti. У нашому магазині ви знайдете все для пошиття оригінальних та ексклюзивних нарядів;Escada;Ткань Escada | цена ткань escada | Mytessuti;Купить ткань Escada в интернет магазине итальянских тканей Mytessuti. В нашем магазине вы найдете все для пошива оригинальных и эксклюзивных нарядов, а также сможете заказать доставку тканей в любую т
-;514;80;etro;Etro;Тканина Etro | Ціна тканина etro | Mytessuti;Купити тканину Etro в інтернет магазині італійських тканин Mytessuti. У нашому магазині ви знайдете все для пошиття оригінальних та ексклюзивних нарядів;Etro;Ткань Etro | цена ткань etro | Mytessuti;Купить ткань Etro в интернет магазине итальянских тканей Mytessuti. В нашем магазине вы найдете все для пошива оригинальных и эксклюзивных нарядов, а также сможете заказать доставку тканей в любую точ
-;515;80;gucci;Gucci;Тканина Gucci | Ціна тканина gucci | Mytessuti;Купить ткань Gucci в интернет магазине итальянских тканей Mytessuti. В нашем магазине вы найдете все для пошива оригинальных и эксклюзивных нарядов, а также сможете заказать доставку тканей в любую то;Gucci;Ткань Gucci | цена ткань gucci | Mytessuti;Купить ткань Gucci в интернет магазине итальянских тканей Mytessuti. В нашем магазине вы найдете все для пошива оригинальных и эксклюзивных нарядов, а также сможете заказать доставку тканей в любую то
-;516;80;kenzo;Kenzo;Тканина Kenzo | Ціна тканина kenzo | Mytessuti;Купити тканина Kenzo в інтернет магазині італійських тканин Mytessuti. У нашому магазині ви знайдете все для пошиття оригінальних та ексклюзивних нарядів;Kenzo;Ткань Kenzo | цена ткань kenzo | Mytessuti;Купить ткань Kenzo в интернет магазине итальянских тканей Mytessuti. В нашем магазине вы найдете все для пошива оригинальных и эксклюзивных нарядов, а также сможете заказать доставку тканей в любую то
-;517;80;mariella-burani;Mariella Burani;Уживані тканини Mariella Burani | Mytessuti;Купити тканина Mariella Burani в інтернет магазині італійських тканин Mytessuti. У нашому магазині ви знайдете все для пошиття оригінальних та ексклюзивних нарядів;Mariella Burani;Купить ткань Mariella Burani | Mytessuti;Купить ткань Mariella Burani в интернет магазине итальянских тканей Mytessuti. В нашем магазине вы найдете все для пошива оригинальных и эксклюзивных нарядов.
-;518;80;marni;Marni;Тканина Marni | Ціна на тканину marni | Mytessuti;Купити тканина Marni в інтернет магазині італійських тканин Mytessuti. У нашому магазині ви знайдете все для пошиття оригінальних та ексклюзивних нарядів;Marni;Ткань Marni | цена ткань marni | Mytessuti;Купить ткань Marni в интернет магазине итальянских тканей Mytessuti. В нашем магазине вы найдете все для пошива оригинальных и эксклюзивных нарядов, а также сможете заказать доставку тканей в любую то
-;519;80;max-mara;Max Mara;Уживані тканина Max Mara | Mytessuti;Купити тканина Max Mara в інтернет магазині італійських тканин Mytessuti. У нашому магазині ви знайдете все для пошиття оригінальних та ексклюзивних нарядів;Max Mara;Купить ткань Max Mara | Mytessuti;Купить ткань Max Mara в интернет магазине итальянских тканей Mytessuti. В нашем магазине вы найдете все для пошива оригинальных и эксклюзивных нарядов, а также сможете заказать доставку тканей в любую
-;520;80;missoni;Missoni;Тканина Missoni | Ціна на тканину missoni | Mytessuti;Купить ткань Missoni в интернет магазине итальянских тканей Mytessuti. В нашем магазине вы найдете все для пошива оригинальных и эксклюзивных нарядов, а также сможете заказать доставку тканей в любую ;Missoni;Ткань Missoni | цена ткань missoni | Mytessuti;Купить ткань Missoni в интернет магазине итальянских тканей Mytessuti. В нашем магазине вы найдете все для пошива оригинальных и эксклюзивных нарядов, а также сможете заказать доставку тканей в любую
-;521;80;elie-saab;Elie Saab;Уживані тканини Elie Saab Ціна | Mytessuti;Купити тканина Elie Saab в інтернет магазині італійських тканин Mytessuti. У нашому магазині ви знайдете все для пошиття оригінальних та ексклюзивних нарядів;Elie Saab;Купить ткань Elie Saab цена | Mytessuti;Купить ткань Elie Saabв интернет магазине итальянских тканей Mytessuti. В нашем магазине вы найдете все для пошива оригинальных и эксклюзивных нарядов, а также сможете заказать доставку тканей в любую
-;522;80;moschino2;Moschino;Уживані тканина Moschino | Mytessuti;Купити тканину Moschino в інтернет магазині італійських тканин Mytessuti. У нашому магазині ви знайдете все для пошиття оригінальних та ексклюзивних нарядів;Moschino;Купить ткань Moschino | Mytessuti;Купить ткань Moschino в интернет магазине итальянских тканей Mytessuti. В нашем магазине вы найдете все для пошива оригинальных и эксклюзивных нарядов, а также сможете заказать доставку тканей в любую
-;523;80;punto-milano;Punto Milano;Уживані тканина Punto Milano для продажу. Mytessuti;Купити тканину Punto Milano в інтернет магазині італійських тканин Mytessuti. У нашому магазині ви знайдете все для пошиття оригінальних та ексклюзивних нарядів;Punto Milano;Купить ткань Punto Milano | Mytessuti;Купить ткань Punto Milano в интернет магазине итальянских тканей Mytessuti. В нашем магазине вы найдете все для пошива оригинальных и эксклюзивных нарядов.
-;524;80;roberto-cavalli;Roberto Cavalli;Уживані тканина Roberto Cavalli | Mytessuti;Купити тканину Roberto Cavalli в інтернет магазині італійських тканин Mytessuti. У нашому магазині ви знайдете все для пошиття оригінальних та ексклюзивних нарядів;Roberto Cavalli;Купить ткань Roberto Cavalli | Mytessuti;Купить ткань Roberto Cavalli в интернет магазине итальянских тканей Mytessuti. В нашем магазине вы найдете все для пошива оригинальных и эксклюзивных нарядов.
-;525;80;solstiss;Solstiss;Тканина Solstiss | Ціна тканина solstiss | Mytessuti;Купити тканину Solstiss в інтернет магазині італійських тканин Mytessuti. У нашому магазині ви знайдете все для пошиття оригінальних та ексклюзивних нарядів;Solstiss;Ткань Solstiss | цена ткань solstiss | Mytessuti;Купить ткань Solstiss в интернет магазине итальянских тканей Mytessuti. В нашем магазине вы найдете все для пошива оригинальных и эксклюзивных нарядов, а также сможете заказать доставку тканей в любую
-;526;80;valentino;Valentino;купити тканину Valentino | Mytessuti;Купити тканину Valentino в інтернет магазині італійських тканин Mytessuti. У нашому магазині ви знайдете все для пошиття оригінальних та ексклюзивних нарядів;Valentino;купить ткань Valentino | Mytessuti;Купить ткань Valentino в интернет магазине итальянских тканей Mytessuti. В нашем магазине вы найдете все для пошива оригинальных и эксклюзивных нарядов.
-;527;80;versace;Versace;Тканина Versace | Ціна тканина versace | Mytessuti;Купити тканина Versace в інтернет магазині італійських тканин Mytessuti. У нашому магазині ви знайдете все для пошиття оригінальних та ексклюзивних нарядів;Versace;Ткань Versace | цена ткань versace | Mytessuti;Купить ткань Versace в интернет магазине итальянских тканей Mytessuti. В нашем магазине вы найдете все для пошива оригинальных и эксклюзивных нарядов, а также сможете заказать доставку тканей в любую
-;530;527;brend;Бренд;Тканина Бренд | Ціна тканина бренд | Mytessuti;Купити будь-які тканини в інтернет магазині італійських тканин Mytessuti. У нашому магазині ви знайдете все для пошиття оригінальних та ексклюзивних нарядів;Бренд;Ткань Бренд | цена ткань бренд | Mytessuti;Купить любые ткани в интернет магазине итальянских тканей Mytessuti. В нашем магазине вы найдете все для пошива оригинальных и эксклюзивных нарядов, а также сможете заказать доставку тканей в любую
-;531;495;velvet;Вельвет;Тканина Вельвет | Ціна тканина вельвет | Mytessuti;Купити вельветову тканину в інтернет магазині італійських тканин Mytessuti. У нашому магазині ви знайдете все для пошиття оригінальних та ексклюзивних нарядів;Вельвет ;Ткань Вельвет | цена ткань вельвет | Mytessuti;Купить вельветовую ткань в интернет магазине итальянских тканей Mytessuti. В нашем магазине вы найдете все для пошива оригинальных и эксклюзивных нарядов, а также сможете заказать доставку тканей в лю
-;532;495;viskoza;Віскоза;Тканина Віскоза | Ціна тканина віскоза | Mytessuti;Купити тканину віскоза в інтернет магазині італійських тканин Mytessuti. У нашому магазині ви знайдете все для пошиття оригінальних та ексклюзивних нарядів;Вискоза ;Ткань Вискоза | цена ткань вискоза | Mytessuti;Купить ткань вискоза в интернет магазине итальянских тканей Mytessuti. В нашем магазине вы найдете все для пошива оригинальных и эксклюзивных нарядов, а также сможете заказать доставку тканей в любую
-;533;495;plisse;Плісе-гофре;Уживані тканина пліссе-гофре для продажу | Mytessuti;Купити пліссе-гофре в інтернет магазині італійських тканин Mytessuti;Плиссе-гофре;Купить ткань плиссе-гофре | Mytessuti;Купить плиссе-гофре в интернет магазине итальянских тканей Mytessuti
-;534;495;devore;Деворе;Тканина Девор | Ціна тканина деворе | Mytessuti;Купити тканину деворе в інтернет магазині італійських тканин Mytessuti. У нашому магазині ви знайдете все для пошиття оригінальних та ексклюзивних нарядів;Деворе ;Ткань Деворе | цена ткань деворе | Mytessuti;Купить ткань деворе в интернет магазине итальянских тканей Mytessuti. В нашем магазине вы найдете все для пошива оригинальных и эксклюзивных нарядов, а также сможете заказать доставку тканей в любую
-;535;495;denim;Денім;Тканина Денім | Ціна тканина денім | Mytessuti;Купити тканину денім в інтернет магазині італійських тканин Mytessuti. У нашому магазині ви знайдете все для пошиття оригінальних та ексклюзивних нарядів;Деним;Ткань Деним | цена ткань деним | Mytessuti;Купить ткань деним  в интернет магазине итальянских тканей Mytessuti. В нашем магазине вы найдете все для пошива оригинальных и эксклюзивных нарядов, а также сможете заказать доставку тканей в любую
-;536;495;dzhersi;Джерсі;Тканина Джерсі | Ціна тканина джерсі | Mytessuti;Купити тканину джерсі в інтернет магазині італійських тканин Mytessuti. У нашому магазині ви знайдете все для пошиття оригінальних та ексклюзивних нарядів;Джерси  ;Ткань Джерси | цена ткань джерси | Mytessuti;Купить ткань джерси в интернет магазине итальянских тканей Mytessuti. В нашем магазине вы найдете все для пошива оригинальных и эксклюзивных нарядов, а также сможете заказать доставку тканей в любую
-;537;495;zhakkard;Жаккард;Тканина Жаккард | Ціна тканина жаккард | Mytessuti;Купити тканина жакард в інтернет магазині італійських тканин Mytessuti. У нашому магазині ви знайдете все для пошиття оригінальних та ексклюзивних нарядів;Жаккард ;Ткань Жаккард | цена ткань жаккард|Mytessuti;Купить ткань жаккард в интернет магазине итальянских тканей Mytessuti. В нашем магазине вы найдете все для пошива оригинальных и эксклюзивных нарядов, а также сможете заказать доставку тканей в любую
-;538;495;zamsh;Імітація шкіри та замші;Тканина Імітація шкіри та замші | Mytessuti;Купити імітацію шкіри та замші в інтернет магазині італійських тканин Mytessuti. У нашому магазині ви знайдете все для пошиття оригінальних та ексклюзивних нарядів;Имитация кожи и замши ;Ткань Имитация кожи и замши | Mytessuti;Купить имитацию кожи и замши в интернет магазине итальянских тканей Mytessuti. В нашем магазине вы найдете все для пошива оригинальных и эксклюзивных нарядов, а также сможете заказать доставку тканей
-;539;495;kashemir;Кашемір;Тканина Кашемір | Ціна кашемір | Mytessuti;Купити тканину кашемір в інтернет магазині італійських тканин Mytessuti. У нашому магазині ви знайдете все для пошиття оригінальних та ексклюзивних нарядів;Кашемир  ;Ткань Кашемир | цена кашемир | Mytessuti;Купить ткань кашемир в интернет магазине итальянских тканей Mytessuti. В нашем магазине вы найдете все для пошива оригинальных и эксклюзивных нарядов, а также сможете заказать доставку тканей в любую
-;540;495;kadi;Каді;Тканина Каді | Ціна тканина каді | Mytessuti;Купити тканину каді в інтернет магазині італійських тканин Mytessuti. У нашому магазині ви знайдете все для пошиття оригінальних та ексклюзивних нарядів;Кади ;Ткань Кади | цена ткань кади | Mytessuti;Купить ткань кади в интернет магазине итальянских тканей Mytessuti. В нашем магазине вы найдете все для пошива оригинальных и эксклюзивных нарядов, а также сможете заказать доставку тканей в любую
-;541;495;kletka;Клітина;Тканина Клітини | Ціна тканина клітини | Mytessuti;Купити клітина тканина в інтернет магазині італійських тканин Mytessuti. У нашому магазині ви знайдете все для пошиття оригінальних та ексклюзивних нарядів;Клетка  ;Ткань Клетка | цена ткань клетка | Mytessuti;Купить клетка ткань в интернет магазине итальянских тканей Mytessuti. В нашем магазине вы найдете все для пошива оригинальных и эксклюзивных нарядов, а также сможете заказать доставку тканей в любую
-;542;495;kotton;Коттон;Тканина Коттон Ціна тканина котон | Mytessuti;Купити тканину котон в інтернет магазині італійських тканин Mytessuti. У нашому магазині ви знайдете все для пошиття оригінальних та ексклюзивних нарядів;Коттон ;Ткань Коттон | цена ткань коттон | Mytessuti;Купить ткань коттон в интернет магазине итальянских тканей Mytessuti. В нашем магазине вы найдете все для пошива оригинальных и эксклюзивных нарядов, а также сможете заказать доставку тканей в любую
-;543;495;kostyumno;Костюмно-платні тканини;Купити костюмно-плательні тканини | Mytessuti;Купити костюмно-плательні тканини в інтернет магазині італійських тканин Mytessuti. У нашому магазині ви знайдете все для пошиття оригінальних та ексклюзивних нарядів;Костюмно-плательные ткани;Купить костюмно-плательные ткани | Mytessuti;Купить костюмно-плательные ткани в интернет магазине итальянских тканей Mytessuti. В нашем магазине вы найдете все для пошива оригинальных и эксклюзивных нарядов.
-;544;495;krep;Кріп;Тканина кріпиться каді | Ціна тканина креп | Mytessuti;Купити тканина креп в інтернет магазині італійських тканин Mytessuti. У нашому магазині ви знайдете все для пошиття оригінальних та ексклюзивних нарядів;Креп;Ткань креп кади | цена ткань креп | Mytessuti;Купить ткань креп в интернет магазине итальянских тканей Mytessuti. В нашем магазине вы найдете все для пошива оригинальных и эксклюзивных нарядов, а также сможете заказать доставку тканей в любую
-;545;495;kruzheva;Мереживо;Тканина Мереживо | Ціна мережива мережива | Mytessuti;Купити мережива мережива в інтернет магазині італійських тканин Mytessuti. У нашому магазині ви знайдете все для пошиття оригінальних та ексклюзивних нарядів;Кружева ;Ткань Кружева | цена ткань кружева | Mytessuti;Купить ткань кружева в интернет магазине итальянских тканей Mytessuti. В нашем магазине вы найдете все для пошива оригинальных и эксклюзивных нарядов, а также сможете заказать доставку тканей в любую
-;546;495;kuponnye;Купонні тканини;Купити купонні тканини Ціна | Mytessuti;Купити купони в інтернет магазині італійських тканин Mytessuti. У нашому магазині ви знайдете все для пошиття оригінальних та ексклюзивних нарядів;Купонные ткани;Купить купонные ткани цена | Mytessuti;Купить купонные ткани в интернет магазине итальянских тканей Mytessuti. В нашем магазине вы найдете все для пошива оригинальных и эксклюзивных нарядов, а также сможете заказать доставку тканей в любую
-;547;495;lyon;Льон;Тканина Льон | Ціна тканина льон | Mytessuti;Купити тканина льон в інтернет магазині італійських тканин Mytessuti. У нашому магазині ви знайдете все для пошиття оригінальних та ексклюзивних нарядів;Лён ;Ткань Лён | цена ткань лён | Mytessuti;Купить ткань лён в интернет магазине итальянских тканей Mytessuti. В нашем магазине вы найдете все для пошива оригинальных и эксклюзивных нарядов, а также сможете заказать доставку тканей в любую
-;548;495;loden;Лоден;Тканина Лоден Ціна тканина лоден | Mytessuti;Купити тканину лоден в інтернет магазині італійських тканин Mytessuti. У нашому магазині ви знайдете все для пошиття оригінальних та ексклюзивних нарядів;Лоден ;Ткань Лоден | цена ткань лоден | Mytessuti;Купить ткань лоден в интернет магазине итальянских тканей Mytessuti. В нашем магазине вы найдете все для пошива оригинальных и эксклюзивных нарядов, а также сможете заказать доставку тканей в любую
-;549;495;makrame;Макраме;Тканина Макраме | Ціна тканина макрамі Mytessuti;Купити тканину макраме в інтернет магазині італійських тканин Mytessuti. У нашому магазині ви знайдете все для пошиття оригінальних та ексклюзивних нарядів;Макраме ;Ткань Макраме| цена ткань макраме Mytessuti;Купить ткань макраме в интернет магазине итальянских тканей Mytessuti. В нашем магазине вы найдете все для пошива оригинальных и эксклюзивных нарядов, а также сможете заказать доставку тканей в любую
-;550;495;moher;Мохер;Тканина Мохер | Ціна тканина мохер | Mytessuti;Купити тканина мохер в інтернет магазині італійських тканин Mytessuti. У нашому магазині ви знайдете все для пошиття оригінальних та ексклюзивних нарядів;Мохер;Ткань Мохер | цена ткань мохер | Mytessuti;Купить ткань мохер в интернет магазине итальянских тканей Mytessuti. В нашем магазине вы найдете все для пошива оригинальных и эксклюзивных нарядов, а также сможете заказать доставку тканей в любую
-;551;495;neopren;Неопрен;Тканина Неопрен | Ціна тканина неопрен Mytessuti;Купити тканину неопрен в інтернет магазині італійських тканин Mytessuti. У нашому магазині ви знайдете все для пошиття оригінальних та ексклюзивних нарядів;Неопрен ;Ткань Неопрен | цена ткань неопрен Mytessuti;Купить ткань неопрен в интернет магазине итальянских тканей Mytessuti. В нашем магазине вы найдете все для пошива оригинальных и эксклюзивных нарядов, а также сможете заказать доставку тканей в любую
-;552;495;organza;Організація;Тканина Організу | Ціна тканина органза Mytessuti;Купити тканину органза в інтернет магазині італійських тканин Mytessuti. У нашому магазині ви знайдете все для пошиття оригінальних та ексклюзивних нарядів;Органза ;Ткань Органза | цена ткань органза Mytessuti;Купить ткань органза в интернет магазине итальянских тканей Mytessuti. В нашем магазине вы найдете все для пошива оригинальных и эксклюзивных нарядов, а также сможете заказать доставку тканей в любую
-;553;495;paetochnye;Паєткові тканини;Купити паєткові тканини | Паєткові тканини | Mytessuti;Купити паєткові тканини в інтернет магазині італійських тканин Mytessuti. У нашому магазині ви знайдете все для пошиття оригінальних та ексклюзивних нарядів;Паеточные ткани ;Купить паеточные ткани | паеточные ткани  цена | Mytessuti;Купить паеточные ткани в интернет магазине итальянских тканей Mytessuti. В нашем магазине вы найдете все для пошива оригинальных и эксклюзивных нарядов, а также сможете заказать доставку тканей в любу
-;554;495;palto;Пальтові тканини; Пальтові тканини | Mytessuti;Пальтові тканини: трендові відтінки та текстури. Купити пальтові тканини в інтернет магазині італійських тканин Mytessuti. У нашому магазині ви знайдете все для пошиття оригінальних та ексклюзивних нарядів;Пальтовые ткани; Пальтовые ткани | Mytessuti;Пальтовые ткани: трендовые оттенки и текстуры. Купить пальтовые ткани в интернет магазине итальянских тканей Mytessuti. В нашем магазине вы найдете все для пошива оригинальных и эксклюзивных нарядов, а также сможете заказать доставку тканей в любу
-;555;495;plashchevye;Плащові тканини;Купити плащові тканини | Mytessuti;Купити плащові тканини в інтернет магазині італійських тканин Mytessuti. У нашому магазині ви знайдете все для пошиття оригінального та ексклюзивного вбрання, а також зможете замовити доставку тканин в будь-яку;Плащевые ткани;Купить плащевые ткани | Mytessuti;Купить плащевые ткани в интернет магазине итальянских тканей Mytessuti. В нашем магазине вы найдете все для пошива оригинальных и эксклюзивных нарядов, а также сможете заказать доставку тканей в любую
-;556;495;poloska;Смужка;Тканина Смужка | Ціна смужка тканина | Mytessuti;Купити смужка тканина в інтернет магазині італійських тканин Mytessuti. У нашому магазині ви знайдете все для пошиття оригінальних та ексклюзивних нарядів;Полоска ;Ткань Полоска | цена ткань полоска | Mytessuti;Купить ткань полоска в интернет магазине итальянских тканей Mytessuti. В нашем магазине вы найдете все для пошива оригинальных и эксклюзивных нарядов, а также сможете заказать доставку тканей в любую
-;557;495;podklad;Підкладочні тканини;Купити підкладкові тканини ціна | Mytessuti;Купити підкладкові тканини в інтернет магазині італійських тканин Mytessuti. У нашому магазині ви знайдете все для пошиття оригінальних та ексклюзивних нарядів;Подкладочные ткани;Купить подкладочные ткани цена | Mytessuti;Купить подкладочные ткани в интернет магазине итальянских тканей Mytessuti. В нашем магазине вы найдете все для пошива оригинальных и эксклюзивных нарядов, а также сможете заказать доставку тканей в л
-;558;495;rubashka;Сорочкові тканини;Купити сорочкові тканини ціна | Mytessuti;Купити сорочки в інтернет магазині італійських тканин Mytessuti. У нашому магазині ви знайдете все для пошиття оригінальних та ексклюзивних нарядів;Рубашечные ткани ;Купить рубашечные ткани цена | Mytessuti;Купить рубашечные ткани в интернет магазине итальянских тканей Mytessuti. В нашем магазине вы найдете все для пошива оригинальных и эксклюзивных нарядов, а также сможете заказать доставку тканей в люб
-;559;495;setka;Сітка;Тканина Сітка | Ціна сітка тканина | Mytessuti;Купити тканина сітка в інтернет магазині італійських тканин Mytessuti. У нашому магазині ви знайдете все для пошиття оригінального та ексклюзивного вбрання, а також зможете замовити доставку тканин в будь-яку;Сетка ;Ткань Сетка | цена ткань сетка | Mytessuti;Купить ткань сетка в интернет магазине итальянских тканей Mytessuti. В нашем магазине вы найдете все для пошива оригинальных и эксклюзивных нарядов, а также сможете заказать доставку тканей в любую
-;560;495;styogannye;Стеганні тканини;Купити стьобані тканини ціна | Mytessuti;Купити стьобану тканину в інтернет магазині італійських тканин Mytessuti. У нашому магазині ви знайдете все для пошиття оригінальних та ексклюзивних нарядів, а також зможете замовити доставку тканин у будь-яку;Стёганные ткани;Купить стёганные ткани цена | Mytessuti;Купить стёганную ткань в интернет магазине итальянских тканей Mytessuti. В нашем магазине вы найдете все для пошива оригинальных и эксклюзивных нарядов, а также сможете заказать доставку тканей в любу
-;561;495;tafta;Тафта;Тканина Тафта | Ціна на тканину тафта | Mytessuti;Купити тканину тафта в інтернет магазині італійських тканин Mytessuti. У нашому магазині ви знайдете все для пошиття оригінального та ексклюзивного вбрання, а також зможете замовити доставку тканин в будь-яку;Тафта  ;Ткань Тафта | цена ткань тафта | Mytessuti;Купить ткань тафта в интернет магазине итальянских тканей Mytessuti. В нашем магазине вы найдете все для пошива оригинальных и эксклюзивных нарядов, а также сможете заказать доставку тканей в любую
-;562;495;tvid;Твід;Тканина Твід | Ціна тканина твід | Mytessuti;Купити тканину твід в інтернет магазині італійських тканин Mytessuti. У нашому магазині ви знайдете все для пошиття оригінального та ексклюзивного вбрання, а також зможете замовити доставку тканин в будь-яку;Твид ;Ткань Твид | цена ткань твид | Mytessuti;Купить ткань твид в интернет магазине итальянских тканей Mytessuti. В нашем магазине вы найдете все для пошива оригинальных и эксклюзивных нарядов, а также сможете заказать доставку тканей в любую
-;563;495;trikotazh;Трикотаж;Тканина Трикотаж | Ціна трикотажу | Mytessuti;Купити тканину трикотаж в інтернет магазині італійських тканин Mytessuti. У нашому магазині ви знайдете все для пошиття оригінального та ексклюзивного вбрання, а також зможете замовити доставку тканин в будь-яку;Трикотаж ;Ткань Трикотаж | цена трикотаж | Mytessuti;Купить ткань трикотаж в интернет магазине итальянских тканей Mytessuti. В нашем магазине вы найдете все для пошива оригинальных и эксклюзивных нарядов, а также сможете заказать доставку тканей в любую
-;564;495;futer;Футер;Тканина Футер | Ціна на тканину футер | Mytessuti;Купити тканину футер в інтернет магазині італійських тканин Mytessuti. У нашому магазині ви знайдете все для пошиття оригінального та ексклюзивного вбрання, а також зможете замовити доставку тканин в будь-яку;Футер ;Ткань Футер | цена ткань футер | Mytessuti;Купить ткань футер в интернет магазине итальянских тканей Mytessuti. В нашем магазине вы найдете все для пошива оригинальных и эксклюзивных нарядов, а также сможете заказать доставку тканей в любую
-;565;495;furnitura;Фурнітура;Придбати тканину фурнітура | Mytessuti;Купити тканина фурнітура в інтернет магазині італійських тканин Mytessuti. У нашому магазині ви знайдете все для пошиття оригінальних та ексклюзивних нарядів, а також зможете замовити доставку тканин у будь-яку;Фурнитура  ;Купить кань Фурнитура цена | Mytessuti;Купить ткань фурнитура в интернет магазине итальянских тканей Mytessuti. В нашем магазине вы найдете все для пошива оригинальных и эксклюзивных нарядов, а также сможете заказать доставку тканей в любу
-;566;495;hlopok;Бавовна;Тканина Бавовна | Ціна бавовни | Mytessuti;Купити тканина бавовна в інтернет магазині італійських тканин Mytessuti. У нашому магазині ви знайдете все для пошиття оригінального та ексклюзивного вбрання, а також зможете замовити доставку тканин в будь-яку;Хлопок  ;Ткань Хлопок | цена ткань хлопок | Mytessuti;Купить ткань хлопок в интернет магазине итальянских тканей Mytessuti. В нашем магазине вы найдете все для пошива оригинальных и эксклюзивных нарядов, а также сможете заказать доставку тканей в любую
-;567;495;shantili;Шантільї;Уживані тканина шантильї ціна | Mytessuti;Купити тканину шантильї в інтернет магазині італійських тканин Mytessuti. У нашому магазині ви знайдете все для пошиття оригінального та ексклюзивного вбрання, а також зможете замовити доставку тканин в будь-яку.;Шантильи ;Купить ткань шантильи цена | Mytessuti;Купить ткань шантильи в интернет магазине итальянских тканей Mytessuti. В нашем магазине вы найдете все для пошива оригинальных и эксклюзивных нарядов, а также сможете заказать доставку тканей в любую
-;568;495;shyolk;Шовк;Тканина Шовк | Ціна тканина шовк | Mytessuti;Купити тканина шовк в інтернет магазині італійських тканин Mytessuti. У нашому магазині ви знайдете все для пошиття оригінального та ексклюзивного вбрання, а також зможете замовити доставку тканин в будь-яку;Шёлк ;Ткань Шёлк | цена ткань шёлк | Mytessuti;Купить ткань шёлк в интернет магазине итальянских тканей Mytessuti. В нашем магазине вы найдете все для пошива оригинальных и эксклюзивных нарядов, а также сможете заказать доставку тканей в любую
-;569;495;sherst;Вовна;Тканина Вовна | Ціна вовна тканина | Mytessuti;Купити тканину вовну в інтернет магазині італійських тканин Mytessuti. У нашому магазині ви знайдете все для пошиття оригінального та ексклюзивного вбрання, а також зможете замовити доставку тканин в будь-яку;Шерсть  ;Ткань Шерсть | цена ткань шерсть | Mytessuti;Купить ткань шерсть в интернет магазине итальянских тканей Mytessuti. В нашем магазине вы найдете все для пошива оригинальных и эксклюзивных нарядов, а также сможете заказать доставку тканей в любую
-;570;495;shityo;Шиття;Тканина Шиття | Ціна тканина шиття | Mytessuti;Купити тканину шиття в інтернет магазині італійських тканин Mytessuti. У нашому магазині ви знайдете все для пошиття оригінального та ексклюзивного вбрання, а також зможете замовити доставку тканин в будь-яку;Шитьё  ;Ткань Шитьё | цена ткань шитьё | Mytessuti;Купить ткань шитьё в интернет магазине итальянских тканей Mytessuti. В нашем магазине вы найдете все для пошива оригинальных и эксклюзивных нарядов, а также сможете заказать доставку тканей в любую
-;571;495;shifon;Шифон;Тканина Шифон ціна тканина шифон | Mytessuti;Купити тканину шифон в інтернет магазині італійських тканин Mytessuti. У нашому магазині ви знайдете все для пошиття оригінального та ексклюзивного вбрання, а також зможете замовити доставку тканин в будь-яку;Шифон ;Ткань Шифон | цена ткань шифон | Mytessuti;Купить ткань шифон в интернет магазине итальянских тканей Mytessuti. В нашем магазине вы найдете все для пошива оригинальных и эксклюзивных нарядов, а также сможете заказать доставку тканей в любую
-;572;495;shtapel;Штапель;Тканина Штапель | Ціна тканина штапель Mytessuti;Купити тканину штапель в інтернет магазині італійських тканин Mytessuti. У нашому магазині ви знайдете все для пошиття оригінального та ексклюзивного вбрання, а також зможете замовити доставку тканин в будь-яку;Штапель ;Ткань Штапель | цена ткань штапель Mytessuti;Купить ткань штапель в интернет магазине итальянских тканей Mytessuti. В нашем магазине вы найдете все для пошива оригинальных и эксклюзивных нарядов, а также сможете заказать доставку тканей в любую
-;575;495;zoloto;Золото;Тканина золото | Ціна золото тканини | Mytessuti;Купити золоту тканину в інтернет магазині італійських тканин Mytessuti. У нашому магазині ви знайдете все для пошиття оригінальних та ексклюзивних нарядів;Золото;Ткань Золото | цена ткань золото | Mytessuti;Купить золотую ткань в интернет магазине итальянских тканей Mytessuti. В нашем магазине вы найдете все для пошива оригинальных и эксклюзивных нарядов, а также сможете заказать доставку тканей в любую
-;576;495;serebro;Срібло;Тканина Срібло | Ціна срібло тканина | Mytessuti;Срібна тканина в інтернет магазині італійських тканин Mytessuti. У нашому магазині ви знайдете все для пошиття оригінальних та ексклюзивних нарядів;Серебро ;Ткань Серебро | цена ткань серебро | Mytessuti;Серебряная ткань ткань в интернет магазине итальянских тканей Mytessuti. В нашем магазине вы найдете все для пошива оригинальных и эксклюзивных нарядов, а также сможете заказать доставку тканей в люб
-;577;495;dovyazy;Дов'язи;Тканина Довязи | Ціна тканина довязи | Mytessuti;Купити довязи та іншу тканину в інтернет магазині італійських тканин Mytessuti. У нашому магазині ви знайдете все для пошиття оригінальних та ексклюзивних нарядів;Довязы;Ткань Довязы | цена ткань довязы | Mytessuti;Купить довязы и другую ткань в интернет магазине итальянских тканей Mytessuti. В нашем магазине вы найдете все для пошива оригинальных и эксклюзивных нарядов, а также сможете заказать доставку тканей
-;578;80;fendi;Fendi;Тканина Fendi | Ціна тканина fendi | Mytessuti;Купити тканину Fendi в інтернет магазині італійських тканин Mytessuti. У нашому магазині ви знайдете все для пошиття оригінальних та ексклюзивних нарядів;Fendi ;Ткань Fendi | цена ткань fendi | Mytessuti;Купить ткань Fendi  в интернет магазине итальянских тканей Mytessuti. В нашем магазине вы найдете все для пошива оригинальных и эксклюзивных нарядов.
-;579;80;philipp-plein;Philipp Plein;Уживані тканини Philipp Plein Ціна | Mytessuti;Купити тканина Philipp Plein в інтернет магазині італійських тканин Mytessuti. У нашому магазині ви знайдете все для пошиття оригінальних та ексклюзивних нарядів;Philipp Plein;Купить ткань Philipp Plein цена | Mytessuti;Купить ткань Philipp Plein в интернет магазине итальянских тканей Mytessuti. В нашем магазине вы найдете все для пошива оригинальных и эксклюзивных нарядов.
-;580;495;meh;Хутро;Тканина Хутро | Ціна тканина хутро | Mytessuti;Купити тканину хутро в інтернет магазині італійських тканин Mytessuti. У нашому магазині ви знайдете все для пошиття оригінальних та ексклюзивних нарядів;Мех;Ткань Мех | цена ткань мех | Mytessuti;Купить ткань мех в интернет магазине итальянских тканей Mytessuti. В нашем магазине вы найдете все для пошива оригинальных и эксклюзивных нарядов, а также сможете заказать доставку тканей в любую т
-;581;495;goroh;Горох;Тканина Горох | Ціна тканина горох | Mytessuti;Купити тканину горох в інтернет магазині італійських тканин Mytessuti. У нашому магазині ви знайдете все для пошиття оригінальних та ексклюзивних нарядів;Горох;Ткань Горох | цена ткань горох | Mytessuti;Купить ткань горох в интернет магазине итальянских тканей Mytessuti. В нашем магазине вы найдете все для пошива оригинальных и эксклюзивных нарядов, а также сможете заказать доставку тканей в любую
-;582;495;printy;Тварини принти;Купити тваринні принти ціна | Mytessuti;Купити тканину тварини принти в інтернет магазині італійських тканин Mytessuti. Нещодавно до нас повернулася мода на тварини принти. Наш інтернет магазин тканин Myttesuti завжди стежить за трендами.;Животные принты;Купить животные принты цена | Mytessuti;Купить ткань животные принты в интернет магазине итальянских тканей Mytessuti. В недавнем времени к нам вернулась мода на животные принты. Наш интернет магазин тканей Myttesuti всегда следит за трендами,
-;583;80;loro-piana;Loro Piana;Купити тканина Loro Piana ціна | Mytessuti;Купити тканина Loro Piana в інтернет магазині італійських тканин Mytessuti. Купити тканини у Києві;Loro Piana;Купить ткань Loro Piana цена | Mytessuti;Купить ткань Loro Piana  в интернет магазине итальянских тканей Mytessuti.Купить ткани в Киеве
-;584;80;monnalisa;Monnalisa;Купити тканина Monnalisa Ціна | Mytessuti;Купити тканину Monnalisa в інтернет магазині італійських тканин Mytessuti;Monnalisa;Купить ткань Monnalisa цена | Mytessuti;Купить ткань Monnalisa в интернет магазине итальянских тканей Mytessuti
-;585;80;la-perla;La Perla;Тканина La Perla | Ціна на тканину la perla | Mytessuti;Купити тканина Anna Rachele в інтернет магазині італійських тканин Mytessuti. Придбати La Perla. Тканини Італії;La Perla;Ткань La Perla | цена ткань la perla | Mytessuti;Купить ткань Anna Rachele в интернет магазине итальянских тканей Mytessuti. Купить La Perla. Ткани Италии
-;586;80;bottega-veneta;Bottega Veneta;Купити тканину Bottega Veneta ціна | Mytessuti;Купити тканина Bottega Veneta в інтернет магазині італійських тканин Mytessuti. У нашому магазині ви знайдете все для пошиття оригінальних та ексклюзивних нарядів;Bottega Veneta;Купить ткань Bottega Veneta цена | Mytessuti;Купить ткань Bottega Veneta в интернет магазине итальянских тканей Mytessuti. В нашем магазине вы найдете все для пошива оригинальных и эксклюзивных нарядов, а также сможете заказать доставку тканей в
-;587;80;tom-ford;Tom Ford;Придбати тканину Tom Ford магазин тканин Mytessuti;Купити тканину Tom Ford в інтернет магазині італійських тканин Mytessuti;Tom Ford;Купить ткань Tom Ford | магазин тканей Mytessuti;Купить ткань Tom Ford в интернет магазине итальянских тканей Mytessuti
-;588;495;platki;Хустки;Тканина для хусток | ціна на тканину | Mytessuti;Купити тканину хустки в інтернет магазині італійських тканин Mytessuti. У нашому магазині ви знайдете все для пошиття оригінального та ексклюзивного вбрання, а також зможете замовити доставку тканин в будь-яку;Платки;Ткань для платков | цена на ткань | Mytessuti;Купить ткань платки в интернет магазине итальянских тканей Mytessuti. В нашем магазине вы найдете все для пошива оригинальных и эксклюзивных нарядов, а также сможете заказать доставку тканей в любую
-;589;80;louis-vuitton;Louis Vuitton;Купити тканину Louis Vuitton | Mytessuti;Купити тканина Louis Vuitton в інтернет магазині італійських тканин Mytessuti. Купити італійські тканини. Тканина Луї купити;Louis Vuitton;Купить ткань Louis Vuitton | Mytessuti;Купить ткань Louis Vuitton в интернет магазине итальянских тканей Mytessuti.  Купить итальянские ткани. Ткань Луи купить
-;590;495;tensel;Тенсел;Тканина Тенсел | ціна тканина тенсел | Mytessuti;Купити тканину тенсел в інтернет магазині італійських тканин Mytessuti. У нашому магазині ви знайдете все для пошиття оригінальних та ексклюзивних нарядів. Італійські тканини;Тенсел;Ткань Тенсел | цена ткань тенсел | Mytessuti;Купить ткань тенсел в интернет магазине итальянских тканей Mytessuti. В нашем магазине вы найдете все для пошива оригинальных и эксклюзивных нарядов. Итальянские ткани
-;591;80;pierre-cardin;Pierre Cardin;Купити тканину Pierre Cardin | Mytessuti;Купить ткань Pierre Cardin в интернет магазине итальянских тканей Mytessuti;Pierre Cardin;Купить ткань Pierre Cardin | Mytessuti;Купить ткань Pierre Cardin в интернет магазине итальянских тканей Mytessuti
-;592;80;radical-chic;Radical Chic;Купити тканину Radical Chic | Mytessuti;Купити тканину Radical Chic в інтернет магазині італійських тканин Mytessuti. У нашому магазині ви знайдете все для пошиття оригінальних та ексклюзивних нарядів;Radical Chic;Купить ткань Radical Chic | Mytessuti;Купить ткань Radical Chic в интернет магазине итальянских тканей Mytessuti. В нашем магазине вы найдете все для пошива оригинальных и эксклюзивных нарядов.
-;593;80;brunello-cucinelli;Brunello Cucinelli;Купити тканину Brunello Cucinelli | Mytessuti;Купити тканина Brunello Cucinelli в інтернет магазині італійських тканин Mytessuti. У нашому магазині ви знайдете все для пошиття оригінальних та ексклюзивних нарядів.;Brunello Cucinelli;Купить ткань Brunello Cucinelli | Mytessuti;Купить ткань Brunello Cucinelli в интернет магазине итальянских тканей Mytessuti. В нашем магазине вы найдете все для пошива оригинальных и эксклюзивных нарядов.
-;594;80;golden-goose;Golden Goose;Купити тканину Golden Goose | Mytessuti;Купити тканину Golden Goose в інтернет магазині італійських тканин Mytessuti. У нашому магазині ви знайдете все для пошиття оригінальних та ексклюзивних нарядів.;Golden Goose;Купить ткань Golden Goose | Mytessuti;Купить ткань Golden Goose в интернет магазине итальянских тканей Mytessuti. В нашем магазине вы найдете все для пошива оригинальных и эксклюзивных нарядов.
