﻿#;filter_id;filter_group_id;name(ua);name(ru-ru)
-;36;1;ANNA RACHELE;ANNA RACHELE
-;37;1;ARMANI;ARMANI
-;38;1;BLUGIRL;BLUGIRL
-;39;1;BLUMARINE;BLUMARINE
-;111;1;Bottega Veneta;Bottega Veneta
-;116;1;Brunello Cucinelli;Brunello Cucinelli
-;40;1;BURBERRY;BURBERRY
-;41;1;CELINE;CELINE
-;42;1;CHANEL;CHANEL
-;4;1;Dior;Dior
-;26;1;Dolce & Gabbana;Dolce & Gabbana
-;108;1;Elie Saab;Elie Saab
-;43;1;EMANUEL UNGARO;EMANUEL UNGARO
-;44;1;EMILIO PUCCI;EMILIO PUCCI
-;45;1;ESCADA;ESCADA
-;46;1;ETRO;ETRO
-;115;1;Golden Goose;Golden Goose
-;47;1;GUCCI;GUCCI
-;48;1;KENZO;KENZO
-;110;1;La Perla;La Perla
-;109;1;Loro Piana;Loro Piana
-;114;1;Louis Vuitton;Louis Vuitton
-;49;1;MARIELLA BURANI;MARIELLA BURANI
-;50;1;MARNI;MARNI
-;51;1;MAX MARA;MAX MARA
-;27;1;Missoni;Missoni
-;28;1;Moschino ;Moschino
-;118;1;Pierre Cardin;Pierre Cardin
-;52;1;PRADA;PRADA
-;53;1;PUNTO MILANO;PUNTO MILANO
-;117;1;Radical Chic;Radical Chic
-;54;1;ROBERTO CAVALLI;ROBERTO CAVALLI
-;55;1;SOLSTISS;SOLSTISS
-;112;1;Tom Ford;Tom Ford
-;29;1;Valentino;Valentino
-;1;1;Versace;Versace
-;56;5;Альпака;Альпака
-;57;5;Ангора;Ангора
-;58;5;Атлас;Атлас
-;97;5;Бавовна;Хлопок
-;60;5;Батист;Батист
-;13;2;Біж;Беж
-;61;5;Біфлекс;Бифлекс
-;14;2;Блакитний;Голубой
-;62;5;Вельвет;Вельвет
-;63;5;Віскоза;Вискоза
-;100;5;Вовна;Шерсть
-;107;5;Горох;Горох
-;64;5;Гофре, пліссе;Гофре, плиссе
-;65;5;Деворе;Деворе
-;66;5;Денім;Деним
-;67;5;Джерсі;Джерси
-;68;5;Жаккард;Жаккард
-;15;2;Золото;Золото
-;69;5;Імітація шкіри та замші;Имитация кожи и замши
-;71;5;Каді;Кади
-;70;5;Кашемір;Кашемир
-;72;5;Клітина;Клетка
-;16;2;Коричневий;Коричневый
-;74;5;Костюмно-платні тканини;Костюмно-плательные ткани
-;73;5;Коттон;Коттон
-;75;5;Кріп;Креп
-;77;5;Купонні тканини;Купонные ткани
-;79;5;Лоден;Лоден
-;78;5;Льон;Лён
-;80;5;Макраме;Макраме
-;18;2;Меланж;Меланж
-;76;5;Мереживо;Кружева
-;81;5;Мохер;Мохер
-;19;2;Мульті;Мульти
-;82;5;Неопрен;Неопрен
-;59;5;Оксамит;Бархат
-;83;5;Організація;Органза
-;84;5;Паєткові тканини;Паеточные ткани
-;85;5;Пальтові тканини;Пальтовые ткани
-;88;5;Підкладочні тканини;Подкладочные ткани
-;86;5;Плащові тканини;Плащевые ткани
-;20;2;Рожевий;Розовый
-;23;2;Синій;Синий
-;22;2;Сірий;Серый
-;90;5;Сітка;Сетка
-;87;5;Смужка;Полоска
-;89;5;Сорочкові тканини;Рубашечные ткани
-;21;2;Срібло;Серебро
-;91;5;Стеганні тканини;Стёганные ткани
-;92;5;Тафта;Тафта
-;106;5;Тварини принти;Животные принты
-;93;5;Твід;Твид
-;119;5;Тенсел;Тенсел
-;94;5;Трикотаж;Трикотаж
-;96;5;Фурнітура;Фурнитура
-;95;5;Футер;Футер
-;24;2;Хакі;Хаки
-;113;5;Хустки;Платки
-;105;5;Хутро;Мех
-;17;2;Червоний;Красный
-;25;2;Чорний;Черный
-;98;5;Шантільї;Шантильи
-;101;5;Шиття;Шитьё
-;102;5;Шифон;Шифон
-;99;5;Шовк;Шёлк
-;103;5;Штапель;Штапель
