id;Slug;Tempalte;locale;name;description;seo_title;seo_description
25;contacts;contacts;ru;Контакты;;Контакты | Интернет магазин тканей | Mytessuti;Контакты интернет магазина тканей Mytessuti. В интернет магазине представлены итальянские ткани, дизайнерские ткани, ткани Италии
26;contacts;contacts;uk;Контакти;;Контакти | Інтернет-магазин тканей Mytessuti;Контакти інтернет-магазину тканей Mytessuti. В інтернет магазині представлені італійські тканини, дизайнерські тканини, тканини Італії
39;;home;ru;Главная;;Интернет магазин тканей | Итальянские ткани Mytessuti;Интернет магазин тканей Mytessuti. Купить итальянские ткани. Ткани Италии. Большой выбор итальянских тканей. Интернет магазин тканей украина
40;;home;uk;Головна;;Інтернет магазин тканин | Італійські тканини Mytessuti;Інтернет-магазин тканин Mytessuti. Купити італійські тканини. Тканини Італії. Великий вибір італійських тканин. Інтернет-магазин тканин України
49;register;default;ru;Регистрация;;Регистрация | Интернет магазин тканей | Mytessuti;Регистрация интернет магазина тканей Mytessuti. В интернет магазине представлены итальянские ткани, дизайнерские ткани, ткани Италии
50;register;default;uk;Реєстрація;;Реєстрація | Інтернет-магазин тканей Mytessuti;Реєстрація інтернет-магазину тканин Mytessuti. В інтернет-магазині представлені італійські тканини, дизайнерські тканини, тканини Італії
53;novelties;novelties;ru;Новинки;;Новинки итальянских тканей | Mytessuti - Итальянские ткани;Новинки итальянских тканей интернет магазина тканей Mytessuti. В интернет магазине представлены итальянские ткани, дизайнерские ткани, ткани Италии
54;novelties;novelties;uk;Новинки;;Новинки італійських тканин Mytessuti - Італійські тканини;Новинки італійських тканин магазину тканин Mytessuti. В інтернет-магазині представлені італійські тканини, дизайнерські тканини, тканини Італії
57;cart;cart;ru;Корзина;;Корзина товаров | Mytessuti;Корзина товаров интернет магазина тканей Mytessuti. В интернет магазине представлены итальянские ткани, дизайнерские ткани, ткани Италии
58;cart;cart;uk;Кошик;;Кошик товарів | Mytessuti;Кошик товарів інтернет магазину тканин Mytessuti. В інтернет магазині представлені італійські тканини, дизайнерські тканини, тканини Італії
59;success;success;ru;Успешное оформление заказа;;Успешное оформление заказа | Mytessuti;Успешное оформление заказа в интернет магазине тканей Mytessuti. В интернет магазине представлены итальянские ткани, дизайнерские ткани, ткани Италии
60;success;success;uk;Успішне оформлення замовлення;;Успішне оформлення замовлення | Mytessuti;Успішне оформлення замовлення в інтернет-магазині тканин Mytessuti. Тканейи на трактори,автомобілі, вантажівки, ковзанки, крани та іншу техніку
61;delivery;delivery;ru;Оплата и доставка;"<h3><em>Способи доставки</em></h3><p>Срок доставки тканей считается от даты обрабатывания заказа.</p><p>Для получения заказа необходим паспорт или удостоверение личности.</p><p><br></p><p><strong>1.	“Новая почта” (доставка в почтовое отделение)&nbsp;</strong></p><p>Стоимость доставки – согласно с тарифами транспортной компании “Новая почта”.&nbsp;</p><p>Заказы доставляются до 3 рабочих дней.&nbsp;</p><p>Конкретный срок доставки зависит от региона и графика работы перевозчика.</p><p>В отделении заказ хранится бесплатно 5 дней, потом возвращается в магазин.&nbsp;</p><p><strong>2.	Самовывоз</strong></p><p>Запчасти для спецтехники можно забрать с магазина по адресу г. Киев, ул. Казимира Малевича 86 г&nbsp;</p><p>График работы можно уточнить на сайте или за телефоном </p><p><br></p><h3><em>Способы оплаты</em></h3><p>Интернет-магазин тканей предлагает два способа оплаты заказов</p><p><br></p><p><strong>1.	Оплата наличными возможна при таких условиях:</strong></p><p>•	самовывоз с магазина</p><p>•	при получении запчасти для спецтехники в отделении “Новой почты”</p><p><strong>2.	Оплата на карту ФОП</strong></p><p>Номер карты вы сможете получить после уточнения деталей заказа с менеджером.&nbsp;</p><p>Вы можете оплатить счет в кассе отделения любого банка, учитывая комиссию этого банка.</p>";Оплата и доставка | Интернет магазин тканей | Mytessuti;Оплата и доставка интернет магазина тканей Mytessuti. В интернет магазине представлены итальянские ткани, дизайнерские ткани, ткани Италии
62;delivery;delivery;uk;Оплата і доставка;"<h3><em>Способи доставки</em></h3><p>Термін доставки тканей вважається від дати обробки замовлення.</p><p>Для отримання замовлення потрібен паспорт або посвідчення особи.</p><p><br></p><p><strong>1. ""Нова пошта""</strong></p><p>Вартість доставки – згідно тарифів транспортної компанії “Нова пошта”.</p><p>Замовлення доставляють до 3 робочих днів.</p><p>Конкретний термін доставки залежить від регіону та графіка роботи перевізника.</p><p>У відділенні замовлення зберігається безкоштовно 5 днів, потім повертається до магазину.</p><p><strong>2. Самовивіз</strong></p><p>Тканейи до спецтехніки можна забрати з магазину</p><p>Графік роботи можна уточнити на сайті або за телефоном</p><p><br></p><h3><em>Способи оплати</em></h3><p>Інтернет-магазин тканей пропонує два способи оплати замовлень</p><p><br></p><p><strong>1. Оплата готівкою можлива за таких умов:</strong></p><p>• самовивіз із магазину</p><p>• при отриманні тканейи для спецтехніки у відділенні “Нової пошти”</p><p><strong>2. Оплата на картку ФОП</strong></p><p>Номер картки ви зможете отримати після уточнення деталей замовлення з менеджером.</p><p>Ви можете сплатити рахунок у касі відділення будь-якого банку з огляду на комісію цього банку.</p>";Оплата та доставка | Інтернет магазин тканей Mytessuti;Оплата та доставка інтернет-магазину тканин Mytessuti. В інтернет магазині представлені італійські тканини, дизайнерські тканини, тканини Італії
63;checkout;checkout;ru;Оформление заказ;;Оформлення замовлення | Mytessuti;Оформлення замовлення интернет магазина тканей Mytessuti. В интернет магазине представлены итальянские ткани, дизайнерские ткани, ткани Италии
64;checkout;checkout;uk;Оформлення замовлення;;Оформлення замовлення | Mytessuti;Оформлення замовлення інтернет магазину тканин Mytessuti. Тканейи на трактори, автомобілі, вантажівки, катки, крани та іншу техніку
65;news;news;ru;Новости;;Новости в мире тканей | Mytessuti;Новости в интернет магазине тканей Mytessuti. В интернет магазине представлены итальянские ткани, дизайнерские ткани, ткани Италии
66;news;news;uk;Новини;;Новини у світі тканин | Mytessuti;Новини в інтернет-магазині тканин Mytessuti. В інтернет магазині представлені італійські тканини, дизайнерські тканини, тканини Італії
67;search;search;ru;Поиск на сайте;;Поиск на сайте | Mytessuti;Поиск на сайте в интернет магазине тканей Mytessuti. В интернет магазине представлены итальянские ткани, дизайнерские ткани, ткани Италии
68;search;search;uk;Пошук на сайті;;Пошук на сайті Mytessuti;Пошук на сайті в інтернет магазині тканин Mytessuti. В інтернет магазині представлені італійські тканини, дизайнерські тканини, тканини Італії
71;privacy-policy;default;ru;Политика конфиденциальности;"<p>Соглашение об обработке персональных данных</p><p>Данное соглашение об обработке персональных данных составлено в соответствии с действующим законодательством Украины. Посетители сайта <a href=""https://mytessuti.com.ua"" rel=""noopener noreferrer"" target=""_blank"">http://mytessuti.com.ua</a> заполнили персональные данные в формах на данном сайте, а также разместили другую информацию обозначенными действиями подтверждающими свое согласие на обработку персональных данных и их передачу оператору обработки персональных данных. Под персональными данными Гражданина понимаются следующие сведения: общая информация о посетителях (имя и адрес электронной почты); посетители сайта направляют свои персональные данные для получения бесплатной информации о сайте и коммерческого предложения.</p><p>Гражданин, принимая это Соглашение, выражают свой интерес и полное согласие, что обработка персональных данных может включать в себя следующие действия: сбор, систематизацию, накопление, хранение, уточнение (обновление, изменение), использование, уничтожение.</p><p>Гражданин гарантирует: информация, предоставленная им, является полной, точной и достоверной; при предоставлении информации не нарушается действующее законодательство Украины, законные права и интересы третьих лиц; вся предоставленная информация заполнена Гражданином относительно себя лично.</p>";Политика конфиденциальности | Mytessuti;Политика конфиденциальности интернет магазина тканей Mytessuti. В интернет магазине представлены итальянские ткани, дизайнерские ткани, ткани Италии
72;privacy-policy;default;uk;Політика конфіденційності;"<p>Угода про обробку персональних даних</p><p>Дана угода про обробку персональних даних складено відповідно до чинного законодавства України. Відвідувачі сайту <a href=""https://mytessuti.com.ua"" rel=""noopener noreferrer"" target=""_blank"">http://mytessuti.com.ua</a> заповнили персональні дані у формах на даному сайті, а також розмістили іншу інформацію позначеними діями підтверджують свою згоду на обробку персональних даних та їх передачу оператору обробки персональних даних. Під персональними даними Громадянина розуміються такі відомості: загальна інформація про відвідувачів (Ім'я та адреса електронної пошти); відвідувачі сайту направляють свої персональні дані для отримання безкоштовної інформації про сайт та комерційної пропозиції. </p><p>Громадянин, приймаючи цю Угоду, висловлюють свою зацікавленість і повну згоду, що обробка персональних даних може включати в себе наступні дії: збір, систематизацію, накопичення, зберігання, уточнення (оновлення, зміну), використання, знищення. </p><p>Громадянин гарантує: інформація, їм надана, є повною, точною і достовірною; при наданні інформації не порушується чинне законодавство України, законні права та інтереси третіх осіб; вся надана інформація заповнена Громадянина щодо себе особисто.</p>";Політика конфіденційності | Mytessuti;Політика конфіденційності інтернет-магазину тканин Mytessuti. В інтернет магазині представлені італійські тканини, дизайнерські тканини
73;login;default;ru;Авторизация;;Авторизация на сайте | Mytessuti;Авторизация интернет магазина тканей Mytessuti. В интернет магазине представлены итальянские ткани, дизайнерские ткани, ткани Италии
74;login;default;uk;Авторизація;;Авторизація на сайті | Mytessuti;Авторизація інтернет-магазину тканин Mytessuti. В інтернет-магазині представлені італійські тканини, дизайнерські тканини, тканини Італії
75;sale;default;ru;Sale;;Распродажа тканей | Интернет магазин тканей | Mytessuti;Распродажа тканей интернет-магазина тканей Mytessuti. Вы можете приобрести ткань по специальной цене. В магазине Mytessuti
76;sale;default;uk;Sale;;Розпродаж тканин | Інтернет-магазин тканей Mytessuti;Розпродаж тканин інтернет-магазину тканин Mytessuti. Ви можете придбати тканину за спеціальною ціною. В магазині Mytessuti